## Interface: 30300
## Author: Tukz
## Version: 10.64
## Title: |cffC495DDTukui|r
## Notes: UI of awesomeness!
## SavedVariables: TukuiData, TukuiArena
## SavedVariablesPerCharacter: TukuiInstallv1060, TukuiUFpos
## X-oUF: oUF

libs\oUF\oUF.xml
Tukui.xml

